Dự đoán chỉ số khỏe mạnh dựa trên lối sống bằng hồi quy tuyến tính
…
##                 age                 bmi  exercise_frequency        diet_quality 
##            1.006214            1.006332            1.002412            1.003576 
##         sleep_hours      smoking_status alcohol_consumption 
##            1.002704            1.005392            1.007410

Dựa vào kết quả trên, không bị xuất hiện đa cộng tuyến trong mô
hình.

data_health$smoking_status <- as.factor(data_health$smoking_status)

data_health

## # A tibble: 930 × 8
##      age   bmi exercise_frequency diet_quality sleep_hours smoking_status
##    <dbl> <dbl>              <dbl>        <dbl>       <dbl> <fct>         
##  1    46  32.0                  5         55.4        7.30 0             
##  2    38  29.6                  6         41.8        7.01 1             
##  3    48  25.3                  5         76.9        6.03 1             
##  4    58  21.8                  2         49.8        5.80 1             
##  5    37  28.5                  2         44.2        7.91 0             
##  6    37  27.0                  2         89.1        7.79 1             
##  7    59  29.5                  5         81.5        7.09 0             
##  8    49  28.2                  3         65.0        8.39 0             
##  9    34  30.2                  4         68.0        4.06 1             
## 10    47  22.3                  4         33.9        6.15 0             
## # ℹ 920 more rows
## # ℹ 2 more variables: alcohol_consumption <dbl>, health_score <dbl>
…
=> Các giá trị ngoại lai sẽ không ảnh hưởng đến mô hình hồi
quy

std_resid_md_health <- rstandard(md_health)
hat_values_md_health <- hatvalues(md_health)
cooks_D_md_health <- cooks.distance(md_health)

data_cooks_md_health <- tibble(id_point = 1:nrow(data_health), rstand = std_resid_md_health, hats = hat_values_md_health, cooks = cooks_D_md_health, heath_score = data_health$health_score)

data_cooks_md_health |> arrange(desc(cooks))

## # A tibble: 930 × 5
##    id_point rstand   hats  cooks heath_score
##       <int>  <dbl>  <dbl>  <dbl>       <dbl>
##  1      336  -5.01 0.0273 0.0704       100  
##  2      383  -3.70 0.0217 0.0304       100  
##  3      614  -3.66 0.0201 0.0275       100  
##  4      554  -3.52 0.0195 0.0246       100  
##  5      302  -3.40 0.0205 0.0243       100  
##  6      332  -3.18 0.0224 0.0233       100  
##  7      817  -3.02 0.0198 0.0184       100  
##  8      893  -3.12 0.0159 0.0157        33.3
##  9      878  -2.25 0.0296 0.0154        44.6
## 10      199  -2.73 0.0198 0.0150       100  
## # ℹ 920 more rows
…
